{
  "results": [
    {
      "popularity": 142.749,
      "vote_count": 477,
      "video": false,
      "poster_path": "/tI8ocADh22GtQFV28vGHaBZVb0U.jpg",
      "id": 475430,
      "adult": false,
      "backdrop_path": "/o0F8xAt8YuEm5mEZviX5pEFC12y.jpg",
      "original_language": "en",
      "original_title": "Artemis Fowl",
      "genre_ids": [
        12,
        14,
        878,
        10751
      ],
      "title": "Artemis Fowl",
      "vote_average": 6,
      "overview": "Artemis Fowl is a 12-year-old genius and descendant of a long line of criminal masterminds. He soon finds himself in an epic battle against a race of powerful underground fairies who may be behind his father's disappearance.",
      "release_date": "2020-06-12"
    },
    {
      "popularity": 80.863,
      "vote_count": 22,
      "video": false,
      "poster_path": "/u12KThfDZpBGQ98Qg7ahWvMV9gq.jpg",
      "id": 554993,
      "adult": false,
      "backdrop_path": "/oCFbh4Mrd0fuGanCgIF6sG27WGD.jpg",
      "original_language": "sv",
      "original_title": "Britt-Marie var här",
      "genre_ids": [
        35,
        18
      ],
      "title": "Britt-Marie Was Here",
      "vote_average": 5,
      "overview": "Britt-Marie, a woman in her sixties, decides to leave her husband and start anew. Having been housewife for most of her life and and living in small backwater town of Borg, there isn't many jobs available and soon she finds herself fending a youth football team.",
      "release_date": "2019-01-25"
    },
    {
      "popularity": 65.617,
      "vote_count": 80,
      "video": false,
      "poster_path": "/fOvqEunubL3wPskvtk2Ficfl0pH.jpg",
      "id": 451184,
      "adult": false,
      "backdrop_path": "/72r4uAQGsa8KEv0DB2TpSu31lEB.jpg",
      "original_language": "en",
      "original_title": "Wasp Network",
      "genre_ids": [
        18,
        36,
        53
      ],
      "title": "Wasp Network",
      "vote_average": 6.4,
      "overview": "Havana, Cuba, 1990. René González, an airplane pilot, unexpectedly flees the country, leaving behind his wife Olga and his daughter Irma, and begins a new life in Miami, where he becomes a member of an anti-Castro organization.",
      "release_date": "2020-01-29"
    },
    {
      "popularity": 68.076,
      "vote_count": 2350,
      "video": false,
      "poster_path": "/f4aul3FyD3jv3v4bul1IrkWZvzq.jpg",
      "id": 508439,
      "adult": false,
      "backdrop_path": "/dW6yBuKwiMeronJZw8kozYLMorB.jpg",
      "original_language": "en",
      "original_title": "Onward",
      "genre_ids": [
        12,
        16,
        35,
        14,
        10751
      ],
      "title": "Onward",
      "vote_average": 7.9,
      "overview": "In a suburban fantasy world, two teenage elf brothers embark on an extraordinary quest to discover if there is still a little magic left out there.",
      "release_date": "2020-02-29"
    },
    {
      "popularity": 75.444,
      "vote_count": 2720,
      "video": false,
      "poster_path": "/8WUVHemHFH2ZIP6NWkwlHWsyrEL.jpg",
      "id": 338762,
      "adult": false,
      "backdrop_path": "/lP5eKh8WOcPysfELrUpGhHJGZEH.jpg",
      "original_language": "en",
      "original_title": "Bloodshot",
      "genre_ids": [
        28,
        878
      ],
      "title": "Bloodshot",
      "vote_average": 7,
      "overview": "After he and his wife are murdered, marine Ray Garrison is resurrected by a team of scientists. Enhanced with nanotechnology, he becomes a superhuman, biotech killing machine—'Bloodshot'. As Ray first trains with fellow super-soldiers, he cannot recall anything from his former life. But when his memories flood back and he remembers the man that killed both him and his wife, he breaks out of the facility to get revenge, only to discover that there's more to the conspiracy than he thought.",
      "release_date": "2020-03-05"
    },
    {
      "popularity": 62.02,
      "vote_count": 2,
      "video": false,
      "poster_path": "/cgC67SOxd9xkjN4Bnvjtuj1vI8T.jpg",
      "id": 663459,
      "adult": false,
      "backdrop_path": "/vLX1fc75h4CJVjAXPth1SlByBTq.jpg",
      "original_language": "en",
      "original_title": "Jungle Beat: The Movie",
      "genre_ids": [
        16
      ],
      "title": "Jungle Beat: The Movie",
      "vote_average": 5.5,
      "overview": "The Jungle Beat animals think it’s the best thing ever when an alien arrives in the jungle bringing with him the power of speech. They also surprisingly think it’s the best thing ever when they find out that he’s been sent to conquer them.",
      "release_date": "2020-06-26"
    },
    {
      "popularity": 58.546,
      "vote_count": 999,
      "video": false,
      "poster_path": "/wxPhn4ef1EAo5njxwBkAEVrlJJG.jpg",
      "id": 514847,
      "adult": false,
      "backdrop_path": "/naXUDz0VGK7aaPlEpsuYW8kNVsr.jpg",
      "original_language": "en",
      "original_title": "The Hunt",
      "genre_ids": [
        28,
        27,
        53
      ],
      "title": "The Hunt",
      "vote_average": 6.6,
      "overview": "Twelve strangers wake up in a clearing. They don't know where they are—or how they got there. In the shadow of a dark internet conspiracy theory, ruthless elitists gather at a remote location to hunt humans for sport. But their master plan is about to be derailed when one of the hunted turns the tables on her pursuers.",
      "release_date": "2020-03-11"
    },
    {
      "popularity": 50.651,
      "vote_count": 1095,
      "video": false,
      "poster_path": "/jHo2M1OiH9Re33jYtUQdfzPeUkx.jpg",
      "id": 385103,
      "adult": false,
      "backdrop_path": "/fKtYXUhX5fxMxzQfyUcQW9Shik6.jpg",
      "original_language": "en",
      "original_title": "Scoob!",
      "genre_ids": [
        12,
        16,
        35,
        9648,
        10751
      ],
      "title": "Scoob!",
      "vote_average": 8,
      "overview": "In Scooby-Doo’s greatest adventure yet, see the never-before told story of how lifelong friends Scooby and Shaggy first met and how they joined forces with young detectives Fred, Velma, and Daphne to form the famous Mystery Inc. Now, with hundreds of cases solved, Scooby and the gang face their biggest, toughest mystery ever: an evil plot to unleash the ghost dog Cerberus upon the world. As they race to stop this global “dogpocalypse,” the gang discovers that Scooby has a secret legacy and an epic destiny greater than anyone ever imagined.",
      "release_date": "2020-05-15"
    },
    {
      "popularity": 48.892,
      "vote_count": 1337,
      "video": false,
      "poster_path": "/gzlbb3yeVISpQ3REd3Ga1scWGTU.jpg",
      "id": 443791,
      "adult": false,
      "backdrop_path": "/ww7eC3BqSbFsyE5H5qMde8WkxJ2.jpg",
      "original_language": "en",
      "original_title": "Underwater",
      "genre_ids": [
        28,
        27,
        878,
        53
      ],
      "title": "Underwater",
      "vote_average": 6.4,
      "overview": "After an earthquake destroys their underwater station, six researchers must navigate two miles along the dangerous, unknown depths of the ocean floor to make it to safety in a race against time.",
      "release_date": "2020-01-08"
    },
    {
      "popularity": 43.466,
      "vote_count": 2,
      "video": false,
      "poster_path": "/uS9qxeCuP1WTYytdyQy9bydTgIi.jpg",
      "id": 591774,
      "adult": false,
      "backdrop_path": "/cSVsGJCDB2TZ3aJMrvfOInW8jqg.jpg",
      "original_language": "en",
      "original_title": "Run with the Hunted",
      "genre_ids": [
        80,
        18,
        53
      ],
      "title": "Run with the Hunted",
      "vote_average": 3.5,
      "overview": "Oscar, a young boy, commits a noble murder and is forced to runaway from his rural hometown, leaving behind his best friend, Loux. He escapes to the nearest city, where he is inducted into a gang of child street thieves. His innocence slips away as he is introduced to love, murder, and corruption. 15 years later, he has forgotten his past and become the leader of this band of lost children. When Loux moves to the city in search of work, she takes a job with a struggling private investigator. Stumbling upon Oscar's missing child report, she takes it upon herself to find the boy who saved her life.",
      "release_date": "2020-06-26"
    },
    {
      "popularity": 39.101,
      "vote_count": 432,
      "video": false,
      "poster_path": "/myf3qzpeN0JbuFRPwSpJcz7rmAT.jpg",
      "id": 458305,
      "adult": false,
      "backdrop_path": "/jZ4YdDCnfK4cO13do9J4JaT8d2O.jpg",
      "original_language": "en",
      "original_title": "Vivarium",
      "genre_ids": [
        27,
        878,
        53
      ],
      "title": "Vivarium",
      "vote_average": 5.9,
      "overview": "A young woman and her fiancé are in search of the perfect starter home. After following a mysterious real estate agent to a new housing development, the couple finds themselves trapped in a maze of identical houses and forced to raise an otherworldly child.",
      "release_date": "2019-07-12"
    },
    {
      "popularity": 42.459,
      "vote_count": 1894,
      "video": false,
      "poster_path": "/kTQ3J8oTTKofAVLYnds2cHUz9KO.jpg",
      "id": 522938,
      "adult": false,
      "backdrop_path": "/3IHqwENGxOb36Jgeot4XHs3BTxz.jpg",
      "original_language": "en",
      "original_title": "Rambo: Last Blood",
      "genre_ids": [
        28,
        18,
        53
      ],
      "title": "Rambo: Last Blood",
      "vote_average": 6.3,
      "overview": "After fighting his demons for decades, John Rambo now lives in peace on his family ranch in Arizona, but his rest is interrupted when Gabriela, the granddaughter of his housekeeper María, disappears after crossing the border into Mexico to meet her biological father. Rambo, who has become a true father figure for Gabriela over the years, undertakes a desperate and dangerous journey to find her.",
      "release_date": "2019-09-19"
    },
    {
      "popularity": 42.059,
      "vote_count": 1477,
      "video": false,
      "poster_path": "/33VdppGbeNxICrFUtW2WpGHvfYc.jpg",
      "id": 481848,
      "adult": false,
      "backdrop_path": "/9sXHqZTet3Zg5tgcc0hCDo8Tn35.jpg",
      "original_language": "en",
      "original_title": "The Call of the Wild",
      "genre_ids": [
        12,
        18,
        10751
      ],
      "title": "The Call of the Wild",
      "vote_average": 7.4,
      "overview": "Buck is a big-hearted dog whose blissful domestic life is turned upside down when he is suddenly uprooted from his California home and transplanted to the exotic wilds of the Yukon during the Gold Rush of the 1890s. As the newest rookie on a mail delivery dog sled team—and later its leader—Buck experiences the adventure of a lifetime, ultimately finding his true place in the world and becoming his own master.",
      "release_date": "2020-02-19"
    },
    {
      "popularity": 41.076,
      "vote_count": 17270,
      "video": false,
      "poster_path": "/f89U3ADr1oiB1s9GkdPOEpXUk5H.jpg",
      "id": 603,
      "adult": false,
      "backdrop_path": "/ByDf0zjLSumz1MP1cDEo2JWVtU.jpg",
      "original_language": "en",
      "original_title": "The Matrix",
      "genre_ids": [
        28,
        878
      ],
      "title": "The Matrix",
      "vote_average": 8.1,
      "overview": "Set in the 22nd century, The Matrix tells the story of a computer hacker who joins a group of underground insurgents fighting the vast and powerful computers who now rule the earth.",
      "release_date": "1999-03-30"
    },
    {
      "popularity": 33.538,
      "vote_count": 0,
      "video": false,
      "poster_path": "/goEW6QqoFxNI2pfbpVqmXj2WXwd.jpg",
      "id": 531876,
      "adult": false,
      "backdrop_path": null,
      "original_language": "en",
      "original_title": "The Outpost",
      "genre_ids": [
        18,
        36,
        10752
      ],
      "title": "The Outpost",
      "vote_average": 0,
      "overview": "A small unit of U.S. soldiers, alone at the remote Combat Outpost Keating, located deep in the valley of three mountains in Afghanistan, battles to defend against an overwhelming force of Taliban fighters in a coordinated attack. The Battle of Kamdesh, as it was known, was the bloodiest American engagement of the Afghan War in 2009 and Bravo Troop 3-61 CAV became one of the most decorated units of the 19-year conflict.",
      "release_date": "2020-06-24"
    },
    {
      "popularity": 27.377,
      "vote_count": 201,
      "video": false,
      "poster_path": "/ygCQnDEqUEIamBpdQdDYnFfxvgM.jpg",
      "id": 339095,
      "adult": false,
      "backdrop_path": "/t93doi7EzoqLFckidrGGnukFPwd.jpg",
      "original_language": "en",
      "original_title": "The Last Days of American Crime",
      "genre_ids": [
        28,
        80,
        53
      ],
      "title": "The Last Days of American Crime",
      "vote_average": 5.6,
      "overview": "In the not-too-distant future, as a final response to crime and terrorism, the U.S. government plans to broadcast a signal that will make it impossible for anyone to knowingly break the law.",
      "release_date": "2020-06-05"
    },
    {
      "popularity": 34.3,
      "vote_count": 3335,
      "video": false,
      "poster_path": "/8ZX18L5m6rH5viSYpRnTSbb9eXh.jpg",
      "id": 619264,
      "adult": false,
      "backdrop_path": "/3tkDMNfM2YuIAJlvGO6rfIzAnfG.jpg",
      "original_language": "es",
      "original_title": "El hoyo",
      "genre_ids": [
        18,
        878,
        53
      ],
      "title": "The Platform",
      "vote_average": 7,
      "overview": "A mysterious place, an indescribable prison, a deep hole. An unknown number of levels. Two inmates living on each level. A descending platform containing food for all of them. An inhuman fight for survival, but also an opportunity for solidarity…",
      "release_date": "2019-11-08"
    },
    {
      "popularity": 33.902,
      "vote_count": 18,
      "video": false,
      "poster_path": "/uCDcQbfIKY4oTPd6tbghloFm7Gi.jpg",
      "id": 606679,
      "adult": false,
      "backdrop_path": "/aVX9a54YFmrcEHATubpuFQQKn5L.jpg",
      "original_language": "en",
      "original_title": "The High Note",
      "genre_ids": [
        35,
        18,
        10402,
        10749
      ],
      "title": "The High Note",
      "vote_average": 7.8,
      "overview": "Set in the dazzling world of the LA music scene comes the story of Grace Davis, a superstar whose talent, and ego, have reached unbelievable heights. Maggie is Grace’s overworked personal assistant who’s stuck running errands, but still aspires to her childhood dream of becoming a music producer. When Grace’s manager presents her with a choice that could alter the course of her career, Maggie and Grace come up with a plan that could change their lives forever.",
      "release_date": "2020-06-10"
    },
    {
      "popularity": 31.616,
      "vote_count": 9,
      "video": false,
      "poster_path": "/h4cPVVNPZUHVeoF6dH2grBvSEKs.jpg",
      "id": 507441,
      "adult": false,
      "backdrop_path": "/kz6JNUDhMx78QuZlztp0UHmz5xg.jpg",
      "original_language": "en",
      "original_title": "Sea Fever",
      "genre_ids": [
        27,
        878,
        53
      ],
      "title": "Sea Fever",
      "vote_average": 5,
      "overview": "The crew of a West of Ireland trawler—marooned at sea—struggle for their lives against a growing parasite in their water supply.",
      "release_date": "2020-06-12"
    },
    {
      "popularity": 31.401,
      "vote_count": 25,
      "video": false,
      "poster_path": "/qWrPZZL7CC3MqySlOzpXaUWjUrd.jpg",
      "id": 698783,
      "adult": false,
      "backdrop_path": "/yOaOwFJMOFJa50hGJEgqWAvn2gO.jpg",
      "original_language": "en",
      "original_title": "2 Minutes of Fame",
      "genre_ids": [
        35
      ],
      "title": "2 Minutes of Fame",
      "vote_average": 7,
      "overview": "An up-and-coming stand-up comic moves to L.A. to pursue a film career after video clips of his act make him an online sensation.",
      "release_date": "2020-06-16"
    }
  ],
  "page": 1,
  "total_results": 566,
  "dates": {
    "maximum": "2020-06-27",
    "minimum": "2020-05-10"
  },
  "total_pages": 29
}
